{
  "type": "object",
  "required": ["name", "version", "package_type"],
  "properties": {
    "name": { "type": "string" },
    "version": { "type": "string" },
    "package_type": { "type": "string" },
    "build_info": {
      "type": "object",
      "required": ["pipeline_id"],
      "properties": {
        "pipeline_id": { "type": "integer" }
      }
    }
  }
}
